/* XPM */
static char * logo_50_xpm[] = {
"50 50 344 2",
"  	c None",
". 	c #13A1CD",
"+ 	c #14A1CD",
"@ 	c #16A2CD",
"# 	c #17A2CE",
"$ 	c #11A0CC",
"% 	c #1AA4CE",
"& 	c #15A2CD",
"* 	c #13A1CC",
"= 	c #1FA6CF",
"- 	c #18A3CE",
"; 	c #10A0CC",
"> 	c #25A8D0",
", 	c #23A8D0",
"' 	c #1BA4CE",
") 	c #19A3CE",
"! 	c #2BABD2",
"~ 	c #28A9D1",
"{ 	c #17A3CE",
"] 	c #1FA5CF",
"^ 	c #30ADD3",
"/ 	c #2CABD2",
"( 	c #27A8D0",
"_ 	c #36AFD4",
": 	c #27A9D1",
"< 	c #2FABD2",
"[ 	c #3CB1D5",
"} 	c #35AED4",
"| 	c #23A7D0",
"1 	c #37AED4",
"2 	c #41B3D6",
"3 	c #39B0D5",
"4 	c #1EA6CF",
"5 	c #3FB1D6",
"6 	c #46B5D8",
"7 	c #3DB2D6",
"8 	c #34AFD4",
"9 	c #23A6CF",
"0 	c #47B5D7",
"a 	c #4AB7D9",
"b 	c #42B4D6",
"c 	c #30ACD3",
"d 	c #17A3CD",
"e 	c #2DA9D1",
"f 	c #4FB9D9",
"g 	c #34AED4",
"h 	c #36ABD1",
"i 	c #56BBDB",
"j 	c #53BBDA",
"k 	c #41B4D7",
"l 	c #38B0D5",
"m 	c #1EA5CF",
"n 	c #109FCB",
"o 	c #109DC8",
"p 	c #109AC4",
"q 	c #2DA1C7",
"r 	c #50B5D5",
"s 	c #4EB9D9",
"t 	c #45B5D7",
"u 	c #22A7D0",
"v 	c #14A2CD",
"w 	c #109EC9",
"x 	c #0F9BC6",
"y 	c #0F97C1",
"z 	c #0F94BC",
"A 	c #0E91B8",
"B 	c #1390B7",
"C 	c #2E9DC1",
"D 	c #4AB2D2",
"E 	c #51B9D9",
"F 	c #4AB7D8",
"G 	c #41B3D7",
"H 	c #2FADD3",
"I 	c #0F95BE",
"J 	c #0E92BA",
"K 	c #0E90B7",
"L 	c #0E8EB6",
"M 	c #0E8EB5",
"N 	c #118EB4",
"O 	c #2799BD",
"P 	c #43AECF",
"Q 	c #4CB7D8",
"R 	c #0E8FB6",
"S 	c #0E8DB4",
"T 	c #0E8CB2",
"U 	c #108BB2",
"V 	c #2294B8",
"W 	c #3DA9CB",
"X 	c #47B4D6",
"Y 	c #38B0D4",
"Z 	c #26A9D1",
"` 	c #0E8BB1",
" .	c #0E8AB0",
"..	c #0F89AF",
"+.	c #1D91B5",
"@.	c #36A5C7",
"#.	c #41B2D4",
"$.	c #3CB2D5",
"%.	c #1AA3CE",
"&.	c #0E89AE",
"*.	c #0E88AD",
"=.	c #0E87AC",
"-.	c #198DB1",
";.	c #30A0C3",
">.	c #3CAFD2",
",.	c #2FACD2",
"'.	c #0E89AF",
").	c #0D87AC",
"!.	c #0D86AB",
"~.	c #0D85A9",
"{.	c #1589AD",
"].	c #2A9BBE",
"^.	c #36ACD0",
"/.	c #33AED3",
"(.	c #0D84A8",
"_.	c #0D83A7",
":.	c #1286AA",
"<.	c #2596BA",
"[.	c #31A8CD",
"}.	c #2EACD2",
"|.	c #1DA5CF",
"1.	c #0D82A6",
"2.	c #0D81A4",
"3.	c #1083A6",
"4.	c #1F92B5",
"5.	c #2BA5CA",
"6.	c #2AAAD1",
"7.	c #21A7D0",
"8.	c #0D80A3",
"9.	c #0D7FA2",
"0.	c #0F80A3",
"a.	c #1A8DB0",
"b.	c #26A1C7",
"c.	c #25A7D0",
"d.	c #0D7EA1",
"e.	c #0C7D9F",
"f.	c #0E7EA0",
"g.	c #1688AC",
"h.	c #219DC3",
"i.	c #20A5CE",
"j.	c #19A4CE",
"k.	c #1CA5CE",
"l.	c #21A6CF",
"m.	c #25A8D1",
"n.	c #20A6CF",
"o.	c #0C7B9D",
"p.	c #0D7B9D",
"q.	c #1384A7",
"r.	c #1C99BF",
"s.	c #1CA3CC",
"t.	c #29A9D1",
"u.	c #11A1CC",
"v.	c #0C799A",
"w.	c #1181A3",
"x.	c #1794BA",
"y.	c #17A1CA",
"z.	c #1BA4CF",
"A.	c #24A8D0",
"B.	c #28AAD1",
"C.	c #2DACD2",
"D.	c #32ADD3",
"E.	c #35AFD4",
"F.	c #0F7FA1",
"G.	c #1491B7",
"H.	c #149DC7",
"I.	c #2AABD2",
"J.	c #2FACD3",
"K.	c #34AED3",
"L.	c #2DAAD1",
"M.	c #19A3CD",
"N.	c #118FB6",
"O.	c #2DABD2",
"P.	c #31ADD3",
"Q.	c #3AB1D5",
"R.	c #3FB3D6",
"S.	c #43B4D7",
"T.	c #43B5D7",
"U.	c #38AFD4",
"V.	c #21A5CF",
"W.	c #12A1CC",
"X.	c #1CA5CF",
"Y.	c #33AED4",
"Z.	c #4CB8D9",
"`.	c #44B4D7",
" +	c #2CA9D1",
".+	c #39B1D5",
"++	c #3EB2D6",
"@+	c #47B6D8",
"#+	c #50BADA",
"$+	c #54BBDB",
"%+	c #50B9D9",
"&+	c #3AAED3",
"*+	c #1EA4CE",
"=+	c #29AAD1",
"-+	c #37AFD4",
";+	c #3BB1D5",
">+	c #40B3D6",
",+	c #49B7D8",
"'+	c #4EB8D9",
")+	c #52BADA",
"!+	c #56BCDB",
"~+	c #5BBEDC",
"{+	c #57BCDB",
"]+	c #39ACD0",
"^+	c #159DC6",
"/+	c #0F9BC5",
"(+	c #109BC5",
"_+	c #109CC6",
":+	c #109BC6",
"<+	c #0F9AC4",
"[+	c #12A0CC",
"}+	c #42B4D7",
"|+	c #46B6D8",
"1+	c #4BB8D9",
"2+	c #58BCDB",
"3+	c #56B9D8",
"4+	c #46ADCE",
"5+	c #2A9CC0",
"6+	c #1292B9",
"7+	c #0E92B9",
"8+	c #0F93BB",
"9+	c #48B6D8",
"0+	c #4DB8D9",
"a+	c #51BADA",
"b+	c #52B9D8",
"c+	c #48B0D0",
"d+	c #319FC2",
"e+	c #1B92B9",
"f+	c #0F8EB6",
"g+	c #46B5D7",
"h+	c #4DB7D8",
"i+	c #48B2D2",
"j+	c #36A3C5",
"k+	c #1F93B8",
"l+	c #118DB3",
"m+	c #3FB2D6",
"n+	c #45B2D4",
"o+	c #39A6C8",
"p+	c #2496B9",
"q+	c #128CB1",
"r+	c #0E8DB3",
"s+	c #18A3CD",
"t+	c #2AAAD2",
"u+	c #37B0D4",
"v+	c #42B2D4",
"w+	c #39A8CB",
"x+	c #2898BB",
"y+	c #168CB1",
"z+	c #0F89AE",
"A+	c #17A2CD",
"B+	c #3CB0D4",
"C+	c #39AACD",
"D+	c #198CB0",
"E+	c #0F87AC",
"F+	c #0E8AAF",
"G+	c #18A2CD",
"H+	c #2BAAD1",
"I+	c #20A6D0",
"J+	c #32AED3",
"K+	c #35ABCF",
"L+	c #2C9FC2",
"M+	c #1C8EB2",
"N+	c #1085AA",
"O+	c #0D85AA",
"P+	c #0D86AA",
"Q+	c #0E88AE",
"R+	c #2EAAD1",
"S+	c #3DB2D5",
"T+	c #2BAAD2",
"U+	c #31ABD0",
"V+	c #2BA1C5",
"W+	c #1F91B5",
"X+	c #1286A9",
"Y+	c #0D83A6",
"Z+	c #0D84A9",
"`+	c #29A8D0",
" @	c #16A2CE",
".@	c #2CAAD0",
"+@	c #2AA3C8",
"@@	c #2093B7",
"#@	c #1486A9",
"$@	c #0E81A4",
"%@	c #0D81A5",
"&@	c #109CC7",
"*@	c #1299C3",
"=@	c #36A8CC",
"-@	c #50B8D7",
";@	c #25A8CF",
">@	c #26A3CA",
",@	c #2097BC",
"'@	c #1587AA",
")@	c #0F7FA2",
"!@	c #0F96BF",
"~@	c #0E94BC",
"{@	c #0E93BB",
"]@	c #0F90B7",
"^@	c #1A92B9",
"/@	c #32A0C3",
"(@	c #45B0D1",
"_@	c #45B4D6",
":@	c #3BB2D5",
"<@	c #21A3CB",
"[@	c #1E99BF",
"}@	c #178AAD",
"|@	c #0D7DA0",
"1@	c #0E8CB3",
"2@	c #128CB2",
"3@	c #2395B9",
"4@	c #1BA3CD",
"5@	c #1B9BC2",
"6@	c #178CB1",
"7@	c #1080A2",
"8@	c #0E8BB2",
"9@	c #0E87AD",
"0@	c #168BAF",
"a@	c #2798BB",
"b@	c #31A7CB",
"c@	c #2EABD2",
"d@	c #15A1CB",
"e@	c #179DC6",
"f@	c #1590B5",
"g@	c #1081A4",
"h@	c #0D7A9C",
"i@	c #1084A8",
"j@	c #1A8CB0",
"k@	c #269CC1",
"l@	c #26A6CD",
"m@	c #109FCC",
"n@	c #129CC7",
"o@	c #1394BB",
"p@	c #1086AA",
"q@	c #0E7B9C",
"r@	c #0E7FA2",
"s@	c #1283A6",
"t@	c #1B91B5",
"u@	c #1E9EC6",
"v@	c #19A2CC",
"w@	c #0F8CB3",
"x@	c #0E7D9F",
"y@	c #1487AB",
"z@	c #1695BC",
"A@	c #149DC6",
"B@	c #0F94BD",
"C@	c #118FB5",
"                                                                                                    ",
"                                                . +                                                 ",
"                                                @ #                                                 ",
"                                              $ % % &                                               ",
"                                              * = = -                                               ",
"                                            ; & > , ' &                                             ",
"                                            ; ) ! ~ = {                                             ",
"                                          ; ; ] ^ / , ' &                                           ",
"                                          ; $ ( _ ^ : = {                                           ",
"                                        ; ; . < [ } / | ' &                                         ",
"                                        ; ; @ 1 2 3 ^ : 4 {                                         ",
"                                      ; ; ; ' 5 6 7 8 / | ' &                                       ",
"                                      ; ; ; 9 0 a b 3 c : 4 d                                       ",
"                                    ; ; ; ; e f f 6 7 g ! | % &                                     ",
"                                    ; ; ; $ h i j a k l c : m d                                     ",
"                                  ; ; n o p q r i s t 7 g ! u % v                                   ",
"                                  w x y z A B C D E F G l H : m d                                   ",
"                                  I J A K L M N O P Q t 7 g ! u % v                                 ",
"                                    K K R M S T U V W X 2 Y H Z m d                                 ",
"                                        M S T `  ...+.@.#.$.g ! u %.+                               ",
"                                            `  .&.*.=.-.;.>.Y ,.Z m @                               ",
"                                              '.*.).!.~.{.].^./.! u )                               ",
"                                                  !.~.(._.:.<.[.}.Z |.@                             ",
"                            &                         _.1.2.3.4.5.6.7.)                             ",
"                          & - ) & $                       8.9.0.a.b.c.|.@                           ",
"                          @ % 4 = ) . ;                     d.e.f.g.h.i.j.                          ",
"                        + { k.l.m.Z n.& ; ;                     o.p.q.r.s.@                         ",
"                        & j.4 | : ! }.t.' u.; ; ;                   v.w.x.y.                        ",
"                      . d z.n.A.B.C.D.E.D.9 + ; ; ; ;                   F.G.H.                      ",
"                      & - |.u Z I.J.K.Y 7 [ L.M.; ; ; ; ;                   N.                      ",
"                    * @ % = A.B.O.P._ Q.R.S.T.U.V.W.; ; ; ; ; ;                                     ",
"                    + - X.7.Z 6.J.Y.Y [ G t F Z.`. +@ ; ; ; ; ; ; ;                                 ",
"                  W.& % 4 | : / P.E..+++S.@+Z.#+$+%+&+*+$ ; ; ; ; ; ; ; ;                           ",
"                  . d X.n.> =+}./.-+;+>+t ,+'+)+!+~+{+]+^+/+(+(+_+_+_+_+:+(+<+                      ",
"                [+& j.m u : ! ^ 8 3 7 }+|+1+%+$+2+3+4+5+6+7+7+7+7+7+7+7+J 8+                        ",
"                W.{ ' n.A.B.C.D._ ;+>+`.9+0+a+b+c+d+e+f+R K K K K K K K                             ",
"              $ + - |.7.Z I.J.g l 7 2 g+a h+i+j+k+l+S M R K K K K                                   ",
"              W.@ % = A.B./ P._ Q.m+S.0 n+o+p+q+` T r+S M R K                   [+- )               ",
"            ; . s+X.7.> t+J./.u+$.2 v+w+x+y+z+'. .` T r+                      $ ) A.= A+            ",
"            $ & j.4 | : / ^ E..+B+C+].D+E+).*.&.F+`                       ; ; G+H+J.> '             ",
"          ; . d ' I+> =+}.J+_ K+L+M+N+O+P+!.*.Q+                      ; ; ; + R+S+_ T+= d           ",
"          $ & j.m u : ! c U+V+W+X+Y+_.Z+O+                        ; ; ; ; $ `+9+@+[ ^ > %           ",
"        ; *  @' = A.B..@+@@@#@$@%@1._.                          o o &@/+<+*@=@-@0+G _ t+= A+        ",
"        $ v - |.7.;@>@,@'@)@9.9.                              !@~@{@7+A A ]@^@/@(@_@:@^ A.%         ",
"      ; W.@ % = <@[@}@F.e.|@                                        K K K L 1@2@3@@.>.E.t+= A+      ",
"      $ . { 4@5@6@7@p.                                                    S 8@'.9@0@a@b@c@A.%       ",
"    ; $ d@e@f@g@h@                                                            *.!.(.i@j@k@l@m A+    ",
"    m@n@o@p@q@                                                                      2.r@s@t@u@v@    ",
"  o y w@                                                                                  x@y@z@A@  ",
"  B@                                                                                            C@  "};
